<?xml version="1.0" encoding="iso-8859-1"?>
<!-- Generator: Adobe Illustrator 16.0.0, SVG Export Plug-In . SVG Version: 6.00 Build 0)  -->
<!DOCTYPE svg PUBLIC "-//W3C//DTD SVG 1.1//EN" "http://www.w3.org/Graphics/SVG/1.1/DTD/svg11.dtd">
<svg version="1.1" id="Capa_1" xmlns="http://www.w3.org/2000/svg" xmlns:xlink="http://www.w3.org/1999/xlink" x="0px" y="0px"
	 width="28px" height="28px" viewBox="0 0 31.542 31.542" style="enable-background:new 0 0 31.542 31.542;"
	 xml:space="preserve">
<g>
	<path d="M19.292,3.521c0-1.942-1.58-3.521-3.521-3.521C13.83,0,12.25,1.579,12.25,3.521H3.547v28.021h24.447V3.521H19.292z
		 M15.771,1.952c0.865,0,1.569,0.704,1.569,1.569h-3.139C14.202,2.656,14.906,1.952,15.771,1.952z M25.069,24.781l-3.834,3.775
		V24.78L25.069,24.781L25.069,24.781z M19.282,22.829v5.786H6.474V6.449h4.659v3.287h9.275V6.449h4.66v16.38H19.282z"/>
</g>
<g>
</g>
<g>
</g>
<g>
</g>
<g>
</g>
<g>
</g>
<g>
</g>
<g>
</g>
<g>
</g>
<g>
</g>
<g>
</g>
<g>
</g>
<g>
</g>
<g>
</g>
<g>
</g>
<g>
</g>
</svg>
